﻿,銀座線-G-FF9500,丸ノ内線-M-F52E36,日比谷線-H-B4B4AB,東西線-T-009ABE,千代田線-C-00BA84,有楽町線-Y-C1A470,半蔵門線-Z-8F76D6,南北線-N-00AC9B,副都心線-F-9C5E31
1,渋谷,荻窪,中目黒,中野,代々木上原,和光市,渋谷,目黒,和光市
2,表参道,南阿佐ヶ谷,恵比寿,落合,代々木公園,地下鉄成増,表参道,白金台,地下鉄成増
3,外苑前,新高円寺,広尾,高田馬場,明治神宮前＜原宿＞,地下鉄赤塚,青山一丁目,白金高輪,地下鉄赤塚
4,青山一丁目,東高円寺,六本木,早稲田,表参道,平和台,永田町,麻布十番,平和台
5,赤坂見附,新中野,神谷町,神楽坂,乃木坂,氷川台,半蔵門,六本木一丁目,氷川台
6,溜池山王,中野坂上,虎ノ門ヒルズ,飯田橋,赤坂,小竹向原,九段下,溜池山王,小竹向原
7,虎ノ門,西新宿,霞ケ関,九段下,国会議事堂前,千川,神保町,永田町,千川
8,新橋,新宿,日比谷,竹橋,霞ケ関,要町,大手町,四ツ谷,要町
9,銀座,新宿三丁目,銀座,大手町,日比谷,池袋,三越前,市ケ谷,池袋
10,京橋,新宿御苑前,東銀座,日本橋,二重橋前＜丸の内＞,東池袋,水天宮前,飯田橋,雑司が谷
11,日本橋,四谷三丁目,築地,茅場町,大手町,護国寺,清澄白河,後楽園,西早稲田
12,三越前,四ツ谷,八丁堀,門前仲町,新御茶ノ水,江戸川橋,住吉,東大前,東新宿
13,神田,赤坂見附,茅場町,木場,湯島,飯田橋,錦糸町,本駒込,新宿三丁目
14,末広町,国会議事堂前,人形町,東陽町,根津,市ケ谷,押上＜スカイツリー前＞,駒込,北参道
15,上野広小路,霞ケ関,小伝馬町,南砂町,千駄木,麹町,,西ケ原,明治神宮前＜原宿＞
16,上野,銀座,秋葉原,西葛西,西日暮里,永田町,,王子,渋谷
17,稲荷町,東京,仲御徒町,葛西,町屋,桜田門,,王子神谷,
18,田原町,大手町,上野,浦安,北千住,有楽町,,志茂,
19,浅草,淡路町,入谷,南行徳,綾瀬,銀座一丁目,,赤羽岩淵,
20,,御茶ノ水,三ノ輪,行徳,北綾瀬,新富町,,,
21,,本郷三丁目,南千住,妙典,,月島,,,
22,,後楽園,北千住,原木中山,,豊洲,,,
23,,茗荷谷,,西船橋,,辰巳,,,
24,,新大塚,,,,新木場,,,
25,,池袋,,,,,,,
